^C:\USERS\THIJS\DOCUMENTS\PROJECTPOKE\PROJECTPOKE\PROJECTPOKE\DEBUG\APPLICATION.OBJ|C:\USERS\THIJS\DOCUMENTS\PROJECTPOKE\PROJECTPOKE\PROJECTPOKE\DEBUG\BASEMANAGER.OBJ|C:\USERS\THIJS\DOCUMENTS\PROJECTPOKE\PROJECTPOKE\PROJECTPOKE\DEBUG\DIALOGUEMANAGER.OBJ|C:\USERS\THIJS\DOCUMENTS\PROJECTPOKE\PROJECTPOKE\PROJECTPOKE\DEBUG\DRAWTILEMAP.OBJ|C:\USERS\THIJS\DOCUMENTS\PROJECTPOKE\PROJECTPOKE\PROJECTPOKE\DEBUG\ENTITYMANAGER.OBJ|C:\USERS\THIJS\DOCUMENTS\PROJECTPOKE\PROJECTPOKE\PROJECTPOKE\DEBUG\FILEMANAGER.OBJ|C:\USERS\THIJS\DOCUMENTS\PROJECTPOKE\PROJECTPOKE\PROJECTPOKE\DEBUG\FUNCTIONMANAGER.OBJ|C:\USERS\THIJS\DOCUMENTS\PROJECTPOKE\PROJECTPOKE\PROJECTPOKE\DEBUG\INPUTMANAGER.OBJ|C:\USERS\THIJS\DOCUMENTS\PROJECTPOKE\PROJECTPOKE\PROJECTPOKE\DEBUG\LAYER.OBJ|C:\USERS\THIJS\DOCUMENTS\PROJECTPOKE\PROJECTPOKE\PROJECTPOKE\DEBUG\MAIN.OBJ|C:\USERS\THIJS\DOCUMENTS\PROJECTPOKE\PROJECTPOKE\PROJECTPOKE\DEBUG\MANAGERMANAGER.OBJ|C:\USERS\THIJS\DOCUMENTS\PROJECTPOKE\PROJECTPOKE\PROJECTPOKE\DEBUG\MAPLOADER.OBJ|C:\USERS\THIJS\DOCUMENTS\PROJECTPOKE\PROJECTPOKE\PROJECTPOKE\DEBUG\MAPMANAGER.OBJ|C:\USERS\THIJS\DOCUMENTS\PROJECTPOKE\PROJECTPOKE\PROJECTPOKE\DEBUG\NPC.OBJ|C:\USERS\THIJS\DOCUMENTS\PROJECTPOKE\PROJECTPOKE\PROJECTPOKE\DEBUG\NPCLOADER.OBJ|C:\USERS\THIJS\DOCUMENTS\PROJECTPOKE\PROJECTPOKE\PROJECTPOKE\DEBUG\PLAYER.OBJ|C:\USERS\THIJS\DOCUMENTS\PROJECTPOKE\PROJECTPOKE\PROJECTPOKE\DEBUG\SCRIPTABLEFUNCTION.OBJ|C:\USERS\THIJS\DOCUMENTS\PROJECTPOKE\PROJECTPOKE\PROJECTPOKE\DEBUG\SCRIPTABLEFUNCTIONS.OBJ|C:\USERS\THIJS\DOCUMENTS\PROJECTPOKE\PROJECTPOKE\PROJECTPOKE\DEBUG\SCRIPTEVENTMANAGER.OBJ|C:\USERS\THIJS\DOCUMENTS\PROJECTPOKE\PROJECTPOKE\PROJECTPOKE\DEBUG\SCRIPTPARSER.OBJ|C:\USERS\THIJS\DOCUMENTS\PROJECTPOKE\PROJECTPOKE\PROJECTPOKE\DEBUG\TILE.OBJ|C:\USERS\THIJS\DOCUMENTS\PROJECTPOKE\PROJECTPOKE\PROJECTPOKE\DEBUG\TILEMAP.OBJ
/OUT:"C:\USERS\THIJS\DOCUMENTS\PROJECTPOKE\PROJECTPOKE\DEBUG\PROJECTPOKE.EXE" /INCREMENTAL /NOLOGO /LIBPATH:C:\USERS\THIJS\DOCUMENTS\PROJECTPOKE\PROJECTPOKE\\SFML\LIB "SFML-SYSTEM-D.LIB" "SFML-GRAPHICS-D.LIB" "SFML-AUDIO-D.LIB" "SFML-NETWORK-D.LIB" "SFML-WINDOW-D.LIB" KERNEL32.LIB USER32.LIB GDI32.LIB WINSPOOL.LIB COMDLG32.LIB ADVAPI32.LIB SHELL32.LIB OLE32.LIB OLEAUT32.LIB UUID.LIB ODBC32.LIB ODBCCP32.LIB /MANIFEST /MANIFESTUAC:"level='asInvoker' uiAccess='false'" /manifest:embed /DEBUG:FASTLINK /PDB:"C:\USERS\THIJS\DOCUMENTS\PROJECTPOKE\PROJECTPOKE\DEBUG\PROJECTPOKE.PDB" /SUBSYSTEM:CONSOLE /TLBID:1 /DYNAMICBASE /NXCOMPAT /IMPLIB:"C:\USERS\THIJS\DOCUMENTS\PROJECTPOKE\PROJECTPOKE\DEBUG\PROJECTPOKE.LIB" /MACHINE:X86 DEBUG\APPLICATION.OBJ
DEBUG\BASEMANAGER.OBJ
DEBUG\DIALOGUEMANAGER.OBJ
DEBUG\DRAWTILEMAP.OBJ
DEBUG\ENTITYMANAGER.OBJ
DEBUG\FILEMANAGER.OBJ
DEBUG\FUNCTIONMANAGER.OBJ
DEBUG\INPUTMANAGER.OBJ
DEBUG\LAYER.OBJ
DEBUG\MAIN.OBJ
DEBUG\MANAGERMANAGER.OBJ
DEBUG\MAPLOADER.OBJ
DEBUG\MAPMANAGER.OBJ
DEBUG\NPC.OBJ
DEBUG\NPCLOADER.OBJ
DEBUG\PLAYER.OBJ
DEBUG\SCRIPTABLEFUNCTION.OBJ
DEBUG\SCRIPTABLEFUNCTIONS.OBJ
DEBUG\SCRIPTEVENTMANAGER.OBJ
DEBUG\SCRIPTPARSER.OBJ
DEBUG\TILE.OBJ
DEBUG\TILEMAP.OBJ
